Script: string_limit, en la línea 6 : unexpected symbol "<=" in expression
Script: string_limit, en la línea 6 : Assignment operator expected
Script: string_limit, en la línea 6 : unexpected symbol "<=" in expression
Script: string_limit, en la línea 6 : malformed assignment
Script: string_limit, en la línea 6 : got '<=' expected ';'
Script: string_limit, en la línea 6 : unexpected symbol "<=" in expression
Script: string_limit, en la línea 6 : malformed assignment
Script: string_limit, en la línea 6 : got '<=' expected ')'
Script: string_limit, en la línea 6 : got 'str' expected ')'
Script: string_limit, en la línea 6 : wrong number of arguments for function string_length
Script: model_load, en la línea 32 : unknown function or script httprequest_update
Script: model_load, en la línea 33 : unknown function or script httprequest_get_state
Script: model_load, en la línea 43 : unknown function or script httprequest_get_message_body_buffer
Script: model_load, en la línea 47 : unknown function or script httprequest_destroy
Script: get_avatar, en la línea 3 : unknown function or script httprequest_create
Script: get_avatar, en la línea 4 : unknown function or script httprequest_connect
Script: get_avatar, en la línea 6 : unknown function or script httprequest_update
Script: get_avatar, en la línea 7 : unknown function or script httprequest_get_state
Script: get_avatar, en la línea 13 : unknown function or script httprequest_get_message_body
Script: get_avatar, en la línea 17 : unknown function or script httprequest_destroy
Script: texture_load, en la línea 7 : unknown function or script httprequest_create
Script: texture_load, en la línea 8 : unknown function or script httprequest_connect
Script: texture_load, en la línea 10 : unknown function or script httprequest_update
Script: texture_load, en la línea 11 : unknown function or script httprequest_get_state
Script: texture_load, en la línea 21 : unknown function or script httprequest_get_message_body_buffer
Script: texture_load, en la línea 25 : unknown function or script httprequest_destroy
Script: post_playing, en la línea 3 : unknown function or script httprequest_create
Script: post_playing, en la línea 4 : unknown function or script httprequest_connect
Script: post_playing, en la línea 5 : unknown function or script httprequest_connect
Script: post_playing, en la línea 6 : unknown function or script httprequest_connect
Script: post_playing, en la línea 7 : unknown function or script httprequest_connect
Script: post_playing, en la línea 8 : unknown function or script httprequest_connect
Script: post_playing, en la línea 9 : unknown function or script httprequest_connect
Script: post_playing, en la línea 11 : unknown function or script httprequest_update
Script: post_playing, en la línea 12 : unknown function or script httprequest_get_state
Script: textbox_draw, en la línea 71 : Assignment operator expected
Script: textbox_draw, en la línea 71 : unexpected symbol "<" in expression
Script: textbox_draw, en la línea 71 : malformed assignment
Script: textbox_draw, en la línea 71 : got '<' expected ';'
Script: textbox_draw, en la línea 71 : unexpected symbol "<" in expression
Script: textbox_draw, en la línea 71 : unexpected symbol "<" in expression
Script: textbox_draw, en la línea 71 : malformed assignment
Script: textbox_draw, en la línea 71 : got '<' expected ')'
Script: textbox_draw, en la línea 71 : malformed assignment
Script: download, en la línea 8 : unknown function or script httprequest_create
Script: download, en la línea 9 : unknown function or script httprequest_connect
Script: download_asset, en la línea 8 : unknown function or script httprequest_create
Script: download_asset, en la línea 9 : unknown function or script httprequest_connect
Objeto: obj_client Evento: Terminar paso, en la línea 1 : unknown function or script socket_update_write
Objeto: obj_client Evento: Paso, en la línea 114 : unknown function or script socket_update_read
Objeto: obj_client Evento: Paso, en la línea 116 : unknown function or script socket_read_message
Objeto: obj_client Evento: Paso, en la línea 136 : unknown function or script buffer_at_end
Objeto: obj_client Evento: Paso, en la línea 350 : unknown function or script buffer_read_string
Objeto: obj_client Evento: Paso, en la línea 429 : unknown function or script buffer_read_float32
Objeto: obj_client Evento: Paso, en la línea 432 : unknown function or script buffer_read_float32
Objeto: obj_client Evento: Paso, en la línea 435 : unknown function or script buffer_read_float32
Objeto: obj_client Evento: Paso, en la línea 576 : unknown function or script socket_get_state
Objeto: obj_client Evento: Paso, en la línea 581 : unknown function or script socket_destroy
Objeto: obj_client Evento: Paso, en la línea 591 : unknown function or script socket_destroy
Objeto: obj_client Evento: Paso, en la línea 655 : unknown function or script buffer_clear
Objeto: obj_client Evento: Paso, en la línea 656 : unknown function or script buffer_write_uint8
Objeto: obj_client Evento: Paso, en la línea 657 : unknown function or script buffer_write_uint8
Objeto: obj_client Evento: Paso, en la línea 658 : unknown function or script buffer_write_string
Objeto: obj_client Evento: Paso, en la línea 659 : unknown function or script socket_write_message
Objeto: obj_client Evento: Paso, en la línea 670 : unknown function or script socket_write_message
Objeto: obj_client Evento: Fin del juego, en la línea 4 : unknown function or script socket_exists
Objeto: obj_client Evento: Fin del juego, en la línea 5 : unknown function or script socket_destroy
Objeto: obj_download Evento: Paso, en la línea 7 : unknown function or script httprequest_update
Objeto: obj_download Evento: Paso, en la línea 9 : unknown function or script httprequest_get_state
Objeto: obj_download Evento: Paso, en la línea 12 : unknown function or script httprequest_destroy
Objeto: obj_download Evento: Paso, en la línea 18 : unknown function or script httprequest_get_status_code
Objeto: obj_download Evento: Paso, en la línea 19 : unknown function or script httprequest_find_response_header
Objeto: obj_download Evento: Paso, en la línea 22 : cannot use an argument outside a script
Objeto: obj_download Evento: Paso, en la línea 22 : cannot use an argument outside a script
Objeto: obj_download Evento: Paso, en la línea 23 : unknown function or script httprequest_get_message_body_buffer
Objeto: obj_download Evento: Paso, en la línea 24 : unknown function or script httprequest_destroy
Objeto: obj_download Evento: Paso, en la línea 25 : unknown function or script buffer_write_to_file
Objeto: obj_download Evento: Paso, en la línea 26 : unknown function or script buffer_destroy
Objeto: obj_projectile Evento: Paso, en la línea 36 : unknown function or script buffer_clear
Objeto: obj_projectile Evento: Paso, en la línea 40 : unknown function or script socket_write_message
Objeto: obj_asset_download Evento: Paso, en la línea 7 : unknown function or script httprequest_update
Objeto: obj_asset_download Evento: Paso, en la línea 9 : unknown function or script httprequest_get_state
Objeto: obj_asset_download Evento: Paso, en la línea 12 : unknown function or script httprequest_destroy
Objeto: obj_asset_download Evento: Paso, en la línea 19 : unknown function or script httprequest_find_response_header
Objeto: obj_asset_download Evento: Paso, en la línea 21 : unknown function or script httprequest_reset
Objeto: obj_asset_download Evento: Paso, en la línea 22 : unknown function or script httprequest_connect
Objeto: obj_asset_download Evento: Paso, en la línea 27 : unknown function or script httprequest_get_message_body_buffer
Objeto: obj_asset_download Evento: Paso, en la línea 29 : unknown function or script httprequest_destroy
Objeto: obj_asset_download Evento: Paso, en la línea 31 : unknown function or script buffer_write_to_file
Objeto: obj_asset_download Evento: Paso, en la línea 33 : unknown function or script buffer_destroy
Script: string_limit, en la línea 6 : malformed for statement
Script: read_other_vars, en la línea 142 : duplicate case statement found
Script: read_other_vars, en la línea 135 : duplicate case statement found
Script: read_other_vars, en la línea 128 : duplicate case statement found
Script: read_other_vars, en la línea 100 : duplicate case statement found
Script: read_other_vars, en la línea 95 : duplicate case statement found
Script: read_other_vars, en la línea 90 : duplicate case statement found
Script: read_other_vars, en la línea 85 : duplicate case statement found
Script: read_other_vars, en la línea 66 : original here
Script: read_other_vars, en la línea 103 : function "texture_load" expects 3 arguments, 2 provided
Script: read_other_vars, en la línea 110 : function "texture_load" expects 3 arguments, 2 provided
Script: read_other_vars, en la línea 117 : function "texture_load" expects 3 arguments, 2 provided
Script: read_other_vars, en la línea 124 : function "texture_load" expects 3 arguments, 2 provided
Script: read_other_vars, en la línea 131 : function "model_load" expects 4 arguments, 2 provided
Script: read_other_vars, en la línea 138 : function "model_load" expects 4 arguments, 2 provided
Script: read_other_vars, en la línea 145 : function "model_load" expects 4 arguments, 2 provided
Script: draw_player, en la línea 4 : Break used without context
Script: textbox_draw, en la línea 71 : malformed for statement
Script: draw_figure, en la línea 5 : Break used without context
Script: fetch_asset, en la línea 25 : function "scr_load_model_obj" expects 1 arguments, 2 provided
Script: fetch_asset, en la línea 31 : function "scr_load_model_obj" expects 1 arguments, 2 provided
Script: fetch_asset, en la línea 37 : function "scr_load_model_obj" expects 1 arguments, 2 provided
Script: fetch_asset, en la línea 43 : function "scr_load_model_obj" expects 1 arguments, 2 provided
Script: fetch_asset, en la línea 49 : function "scr_load_model_obj" expects 1 arguments, 2 provided
Objeto: obj_client Evento: Crear, en la línea 28 : function "server_connect" expects 3 arguments, 0 provided
Objeto: obj_figure Evento: Paso, en la línea 41 : function "scr_load_model_obj" expects 1 arguments, 2 provided
Objeto: obj_figure Evento: Paso, en la línea 56 : function "scr_load_model_obj" expects 1 arguments, 2 provided
Objeto: obj_figure Evento: Paso, en la línea 71 : function "scr_load_model_obj" expects 1 arguments, 2 provided
Objeto: obj_figure Evento: Paso, en la línea 84 : function "scr_load_model_obj" expects 1 arguments, 2 provided
Objeto: obj_brick Evento: Paso, en la línea 18 : function "scr_load_model_obj" expects 1 arguments, 2 provided
Objeto: obj_dummy Evento: Paso, en la línea 38 : function "scr_load_model_obj" expects 1 arguments, 2 provided
Objeto: obj_dummy Evento: Paso, en la línea 53 : function "scr_load_model_obj" expects 1 arguments, 2 provided
Objeto: obj_dummy Evento: Paso, en la línea 68 : function "scr_load_model_obj" expects 1 arguments, 2 provided
